{
	"$schema": "https://raw.githubusercontent.com/martinring/tmlanguage/master/tmlanguage.json",
	"name": "maniascript",
  "fileTypes": [
    ".Script.txt",
    ".script.txt"
  ],
	"scopeName": "source.maniascript",
	"patterns": [
    { "include": "#program" }
	],
	"repository": {
    "program": {
      "patterns": [
        { "include": "#comments" },
        { "include": "#directives" },
        { "include": "#declarations" },
        { "include": "#statement-main" }
      ]
    },
    "comments": {
      "patterns": [
        { "include": "#comment-single-line" },
        { "include": "#comment-javadoc" },
        { "include": "#comment-multi-lines" }
      ]
    },
    "comment-single-line": {
      "name": "comment.line.double-slash.maniascript",
      "match": "(//)(.*)$",
      "captures": {
        "1": {
          "name": "punctuation.definition.comment.maniascript"
        },
        "2": {
          "patterns": [
            { "include": "#comment-tags"}
          ]
        }
      }
    },
    "comment-javadoc": {
      "name": "meta.embedded.javadoc.maniascript",
      "begin": "(?=^\\s*(/\\*\\*)(?!/))",
      "end": "(?<=\\*/)",
      "patterns": [
        { "include": "source.java#comments-javadoc" }
      ]
    },
    "comment-multi-lines": {
      "name": "comment.block.maniascript",
      "begin": "(/\\*)",
      "beginCaptures": {
        "1": {
          "name": "punctuation.definition.comment.maniascript"
        }
      },
      "end": "(\\*/)",
      "endCaptures": {
        "1": {
          "name": "punctuation.definition.comment.maniascript"
        }
      },
      "patterns": [
        { "include": "#comment-tags"}
      ]
    },
    "comment-tags": {
      "patterns": [
        { "include": "#comment-tag-debug"}
      ]
    },
    "comment-tag-debug": {
      "begin": "(@[Dd][Ee][Bb][Uu][Gg])(?:\\s+|\\b)",
      "beginCaptures": {
        "1": {
          "name": "keyword.other.comment-tag.debug.maniascript"
        }
      },
      "end": "\\s*(?=$|\\*/)",
      "contentName": "markup.underline.maniascript"
    },
    "directives": {
      "patterns": [
        { "include": "#directive-const" },
        { "include": "#directive-requirecontext" },
        { "include": "#directive-extends" },
        { "include": "#directive-include" },
        { "include": "#directive-setting" },
        { "include": "#directive-command" },
        { "include": "#directive-struct" }
      ]
    },
    "directive-const": {
      "name": "meta.directive.const.maniascript",
      "applyEndPatternLast": 1,
      "begin": "(#Const)\\b",
      "beginCaptures": {
        "1": {
          "name": "keyword.other.directive.const.maniascript"
        }
      },
      "end": "(?=\\S)",
      "patterns": [
        {
          "applyEndPatternLast": 1,
          "begin": "(?<=#Const)",
          "end": "(?:(?:\\s*([_[:alpha:]][_[:alnum:]]*)\\s*(::))?\\s*([_[:alpha:]][_[:alnum:]]*))|\\S",
          "endCaptures": {
            "1": {
              "name": "variable.other.namespace.maniascript"
            },
            "2": {
              "name": "punctuation.separator.coloncolon.maniascript"
            },
            "3": {
              "name": "variable.other.constant.maniascript"
            }
          },
          "patterns": [
            { "include": "#comments" }
          ]
        },
        {
          "applyEndPatternLast": 1,
          "begin": "\\b(as)\\b",
          "beginCaptures": {
            "1": {
              "name": "keyword.operator.expression.as.maniascript"
            }
          },
          "end": "([_[:alpha:]][_[:alnum:]]*)|(?=\\S)",
          "endCaptures": {
            "1": {
              "name": "variable.other.constant.maniascript"
            }
          },
          "patterns": [
            { "include": "#comments" }
          ]
        },
        { "include": "#comments" },
        { "include": "#expression-struct" },
        { "include": "#expression-array" },
        { "include": "#literal-real" },
        { "include": "#literal-integer" },
        { "include": "#literal-boolean" },
        { "include": "#literal-null" },
        { "include": "#literal-nullid" },
        { "include": "#literal-vector" },
        { "include": "#literal-enum" },
        { "include": "#literal-string" }
      ]
    },
    "directive-requirecontext": {
      "name": "meta.directive.requirecontext.maniascript",
      "applyEndPatternLast": 1,
      "begin": "(#RequireContext)\\b",
      "beginCaptures": {
        "1": {
          "name": "keyword.other.directive.requirecontext.maniascript"
        }
      },
      "end": "([_[:alpha:]][_[:alnum:]]*)|(?=\\S)",
      "endCaptures": {
        "1": {
          "name": "entity.name.type.class.maniascript"
        }
      },
      "patterns": [
        { "include": "#comments" }
      ]
    },
    "directive-extends": {
      "name": "meta.directive.extends.maniascript",
      "applyEndPatternLast": 1,
      "begin": "(#Extends)\\b",
      "beginCaptures": {
        "1": {
          "name": "keyword.other.directive.extends.maniascript"
        }
      },
      "end": "(?=\\S)",
      "patterns": [
        { "include": "#literal-string" },
        { "include": "#comments" }
      ]
    },
    "directive-include": {
      "name": "meta.directive.include.maniascript",
      "applyEndPatternLast": 1,
      "begin": "(#Include)\\b",
      "beginCaptures": {
        "1": {
          "name": "keyword.other.directive.include.maniascript"
        }
      },
      "end": "(?=\\S)",
      "patterns": [
        { "include": "#literal-string" },
        { "include": "#comments" },
        {
          "applyEndPatternLast": 1,
          "begin": "\\b(as)\\b",
          "beginCaptures": {
            "1": {
              "name": "keyword.operator.expression.as.maniascript"
            }
          },
          "end": "([_[:alpha:]][_[:alnum:]]*)|(?=\\S)",
          "endCaptures": {
            "1": {
              "name": "variable.other.constant.maniascript"
            }
          },
          "patterns": [
            { "include": "#comments" }
          ]
        }
      ]
    },
    "directive-setting": {
      "name": "meta.directive.setting.maniascript",
      "applyEndPatternLast": 1,
      "begin": "(#Setting)\\b",
      "beginCaptures": {
        "1": {
          "name": "keyword.other.directive.setting.maniascript"
        }
      },
      "end": "(?=\\S)",
      "patterns": [
        {
          "applyEndPatternLast": 1,
          "begin": "(?<=#Setting)",
          "end": "\\s*([_[:alpha:]][_[:alnum:]]*)|(?=\\S)",
          "endCaptures": {
            "1": {
              "name": "variable.other.setting.maniascript"
            }
          },
          "patterns": [
            { "include": "#comments" }
          ]
        },
        {
          "applyEndPatternLast": 1,
          "begin": "\\b(as)\\b",
          "beginCaptures": {
            "1": {
              "name": "keyword.operator.expression.as.maniascript"
            }
          },
          "end": "(?=\\S)",
          "patterns": [
            { "include": "#comments" },
            { "include": "#literal-string" }
          ]
        },
        { "include": "#comments" },
        { "include": "#literal-real" },
        { "include": "#literal-integer" },
        { "include": "#literal-boolean" },
        { "include": "#literal-null" },
        { "include": "#literal-nullid" },
        { "include": "#literal-vector" },
        { "include": "#literal-enum" },
        { "include": "#literal-string" }
      ]
    },
    "directive-command": {
      "name": "meta.directive.command.maniascript",
      "applyEndPatternLast": 1,
      "begin": "(#Command)\\b",
      "beginCaptures": {
        "1": {
          "name": "keyword.other.directive.command.maniascript"
        }
      },
      "end": "(?=\\S)",
      "patterns": [
        {
          "applyEndPatternLast": 1,
          "begin": "(?<=#Command)",
          "end": "\\s*([_[:alpha:]][_[:alnum:]]*)|(?=\\S)",
          "endCaptures": {
            "1": {
              "name": "variable.other.command.maniascript"
            }
          },
          "patterns": [
            { "include": "#comments" }
          ]
        },
        {
          "applyEndPatternLast": 1,
          "begin": "\\b(as)\\b",
          "beginCaptures": {
            "1": {
              "name": "keyword.operator.expression.as.maniascript"
            }
          },
          "end": "(?=\\S)",
          "patterns": [
            { "include": "#comments" },
            { "include": "#literal-string" }
          ]
        },
        {
          "begin": "\\(",
          "beginCaptures": {
            "0": {
              "name": "punctuation.parenthesis.open.maniascript"
            }
          },
          "end": "\\)",
          "endCaptures": {
            "0": {
              "name": "punctuation.parenthesis.close.maniascript"
            }
          },
          "patterns": [
            { "include": "#literal-type" },
            { "include": "#comments" }
          ]
        },
        { "include": "#comments" }
      ]
    },
    "directive-struct": {
      "name": "meta.directive.struct.maniascript",
      "applyEndPatternLast": 1,
      "begin": "(#Struct)\\b",
      "beginCaptures": {
        "1": {
          "name": "keyword.other.directive.struct.maniascript"
        }
      },
      "end": "(?=\\S)",
      "patterns": [
        {
          "applyEndPatternLast": 1,
          "begin": "(?<=#Struct)",
          "end": "(?:(?:\\s*([_[:alpha:]][_[:alnum:]]*)\\s*(::))?\\s*([_[:alpha:]][_[:alnum:]]*))|(?=\\S)",
          "endCaptures": {
            "1": {
              "name": "variable.other.namespace.maniascript"
            },
            "2": {
              "name": "punctuation.separator.coloncolon.maniascript"
            },
            "3": {
              "name": "entity.name.type.struct.maniascript"
            }
          },
          "patterns": [
            { "include": "#comments" }
          ]
        },
        {
          "applyEndPatternLast": 1,
          "begin": "\\b(as)\\b",
          "beginCaptures": {
            "1": {
              "name": "keyword.operator.expression.as.maniascript"
            }
          },
          "end": "([_[:alpha:]][_[:alnum:]]*)|(?=\\S)",
          "endCaptures": {
            "1": {
              "name": "entity.name.type.struct.maniascript"
            }
          },
          "patterns": [
            { "include": "#comments" }
          ]
        },
        {
          "begin": "\\{",
          "beginCaptures": {
            "0": {
              "name": "punctuation.definition.struct.begin.maniascript"
            }
          },
          "end": "\\}",
          "endCaptures": {
            "0": {
              "name": "punctuation.definition.struct.end.maniascript"
            }
          },
          "patterns": [
            { "include": "#comments" },
            { "include": "#directive-struct-declaration-member" }
          ]
        },
        { "include": "#comments" }
      ]
    },
    "directive-struct-declaration-member": {
      "begin": "(?:[_[:alpha:]][_[:alnum:]]*::)?[_[:alpha:]][_[:alnum:]]*(?:\\[\\]|\\[(?:[_[:alpha:]][_[:alnum:]]*::)?[_[:alpha:]][_[:alnum:]]*\\])*",
      "beginCaptures": {
        "0": {
          "patterns": [
            { "include": "#type" }
          ]
        }
      },
      "end": ";",
      "endCaptures": {
        "0": {
          "name": "punctuation.terminator.statement.maniascript"
        }
      },
      "patterns": [
        { "include": "#comments" },
        {
          "name": "entity.name.member.maniascript",
          "match": "[_[:alpha:]][_[:alnum:]]*"
        }
      ]
    },
    "declarations": {
      "patterns": [
        { "include": "#variable-declaration" },
        { "include": "#function-declaration" },
        { "include": "#label-declaration" },
        { "include": "#punctuation-terminator" }
      ]
    },
    "variable-declaration": {
      "patterns": [
        { "include": "#variable-declaration-declare" },
        { "include": "#variable-declaration-let" }
      ]
    },
    "variable-declaration-declare": {
      "name": "meta.definition.variable.maniascript",
      "begin": "declare",
      "beginCaptures": {
        "0": {
          "name": "keyword.other.declare.maniascript"
        }
      },
      "end": "(?=;)",
      "patterns": [
        {
          "begin": "\\b(as)\\b",
          "beginCaptures": {
            "1": {
              "name": "keyword.operator.expression.as.maniascript"
            }
          },
          "end": "([_[:alpha:]][_[:alnum:]]*)|(?=\\bfor\\b|<=>|=|;)",
          "endCaptures": {
            "1": {
              "name": "variable.other.readwrite.maniascript"
            }
          },
          "patterns": [
            { "include": "#comments" }
          ]
        },
        {
          "begin": "\\b(for)\\b",
          "beginCaptures": {
            "1": {
              "name": "keyword.other.for.maniascript"
            }
          },
          "end": "(?=<=>|=|;)",
          "patterns": [
            { "include": "#expressions" }
          ]
        },
        {
          "begin": "=|<=>",
          "beginCaptures": {
            "0": {
              "name": "keyword.operator.assignment.maniascript"
            }
          },
          "end": "(?=;)",
          "patterns": [
            { "include": "#expressions" }
          ]
        },
        {
          "begin": "(?<=\\bdeclare\\b|\\bcloud\\b|\\bmetadata\\b|\\bnetread\\b|\\bnetwrite\\b|\\bpersistent\\b)",
          "end": "(?=\\bfor\\b|\\bas\\b|=|<=>|;)",
          "patterns": [
            { "include": "#keyword-storage-modifier" },
            {
              "match": "([_[:alpha:]][_[:alnum:]]*)(?:(?=;|=|<=>)|\\s+(?=\\bas\\b|\\bfor\\b|;|=|<=>))",
              "captures": {
                "1": {
                  "name": "variable.other.readwrite.maniascript"
                }
              }
            },
            {
              "match": "(?<=\\bdeclare\\b|\\bcloud\\b|\\bmetadata\\b|\\bnetread\\b|\\bnetwrite\\b|\\bpersistent\\b)\\s+(?!\\bcloud\\b|\\bmetadata\\b|\\bnetread\\b|\\bnetwrite\\b|\\bpersistent\\b)(?:((?:[_[:alpha:]][_[:alnum:]]*::)?[_[:alpha:]][_[:alnum:]]*(?:\\[\\]|\\[(?:[_[:alpha:]][_[:alnum:]]*::)?[_[:alpha:]][_[:alnum:]]*\\])*)\\s+)(?!\\bfor\\b|\\bas\\b|=|<=>|;)",
              "captures": {
                "1": {
                  "patterns": [
                    { "include": "#type" }
                  ]
                }
              }
            },
            {
              "match": "((?:[_[:alpha:]][_[:alnum:]]*::)?[_[:alpha:]][_[:alnum:]]*(?:\\[\\]|\\[(?:[_[:alpha:]][_[:alnum:]]*::)?[_[:alpha:]][_[:alnum:]]*\\])*)",
              "captures": {
                "1": {
                  "name": "variable.other.type-or-name.maniascript"
                }
              }
            },
            { "include": "#comments" }
          ]
        },
        { "include": "#comments" }
      ]
    },
    "variable-declaration-let": {
      "name": "meta.definition.variable.maniascript",
      "begin": "let",
      "beginCaptures": {
        "0": {
          "name": "keyword.other.let.maniascript"
        }
      },
      "end": "(?=;)",
      "patterns": [
        {
          "begin": "(?<=let)",
          "end": "([_[:alpha:]][_[:alnum:]]*)|(?=;|=)",
          "endCaptures": {
            "1": {
              "name": "variable.other.readwrite.maniascript"
            }
          },
          "patterns": [
            { "include": "#comments" }
          ]
        },
        { "include": "#expressions" }
      ]
    },
    "function-declaration": {
      "name": "meta.definition.function.maniascript",
      "begin": "((?:[_[:alpha:]][_[:alnum:]]*::)?[_[:alpha:]][_[:alnum:]]*(?:\\[\\]|\\[(?:[_[:alpha:]][_[:alnum:]]*::)?[_[:alpha:]][_[:alnum:]]*\\])*)\\s+([_[:alpha:]][_[:alnum:]]*)\\s*(?=\\()",
      "beginCaptures": {
        "1": {
          "patterns": [
            { "include": "#type" }
          ]
        },
        "2": {
          "name": "entity.name.function.maniascript"
        }
      },
      "end": "(?<=\\})",
      "patterns": [
        { "include": "#function-parameters" },
        { "include": "#body" }
      ]
    },
    "function-parameters": {
      "name": "meta.definition.parameters.maniascript",
      "begin": "\\(",
      "beginCaptures": {
        "0": {
          "name": "punctuation.parenthesis.open.maniascript"
        }
      },
      "end": "\\)",
      "endCaptures": {
        "0": {
          "name": "punctuation.parenthesis.close.maniascript"
        }
      },
      "patterns": [
        {
          "name": "punctuation.separator.comma.maniascript",
          "match": ","
        },
        { "include": "#function-parameter" }
      ]
    },
    "function-parameter": {
      "name": "meta.definition.parameter.maniascript",
      "begin": "((?:[_[:alpha:]][_[:alnum:]]*::)?[_[:alpha:]][_[:alnum:]]*(?:\\[\\]|\\[(?:[_[:alpha:]][_[:alnum:]]*::)?[_[:alpha:]][_[:alnum:]]*\\])*)",
      "beginCaptures": {
        "1": {
          "patterns": [
            { "include": "#type" }
          ]
        }
      },
      "end": "([_[:alpha:]][_[:alnum:]]*)|(?=,|\\))",
      "endCaptures": {
        "1": {
          "name": "variable.parameter.maniascript"
        }
      }
    },
    "body": {
      "name": "meta.block.maniascript",
      "begin": "\\{",
      "beginCaptures": {
        "0": {
          "name": "punctuation.curlybrace.open.maniascript"
        }
      },
      "end": "\\}",
      "endCaptures": {
        "0": {
          "name": "punctuation.curlybrace.close.maniascript"
        }
      },
      "patterns": [
        { "include": "#statements" }
      ]
    },
    "label-declaration": {
      "name": "meta.definition.label.maniascript",
      "begin": "\\*\\*\\*",
      "beginCaptures": {
        "0": {
          "name": "punctuation.definition.label.begin.maniascript"
        }
      },
      "end": "\\*\\*\\*",
      "endCaptures": {
        "0": {
          "name": "punctuation.definition.label.end.maniascript"
        }
      },
      "patterns": [
        {
          "match": "(?<=\\*\\*\\*\\s*)[_[:alpha:]][_[:alnum:]]*(?=\\s*\\*\\*\\*)",
          "captures": {
            "0": {
              "name": "entity.name.tag.maniascript"
            }
          }
        },
        { "include": "#statements" }
      ]
    },
    "statement-main": {
      "name": "meta.main.maniascript",
      "begin": "\\b(main)\\b",
      "beginCaptures": {
        "1": {
          "name": "support.function.maniascript"
        }
      },
      "end": "(?<=\\})",
      "patterns": [
        { "include": "#function-parameters" },
        { "include": "#body" },
        { "include": "#comments" }
      ]
    },
    "statements": {
      "patterns": [
        { "include": "#comments" },
        { "include": "#variable-declaration" },
        { "include": "#statement-block" },
        { "include": "#statement-return" },
        { "include": "#statement-label" },
        { "include": "#statement-assert" },
        { "include": "#statement-loop" },
        { "include": "#statement-break-continue" },
        { "include": "#statement-switch" },
        { "include": "#statement-switchtype" },
        { "include": "#statement-if" },
        { "include": "#statement-else" },
        { "include": "#statement-log" },
        { "include": "#statement-sleep" },
        { "include": "#statement-wait" },
        { "include": "#statement-tuningstart" },
        { "include": "#statement-tuningend" },
        { "include": "#statement-tuningmark" },
        { "include": "#statement-yield" },
        { "include": "#expressions" },
        { "include": "#punctuation-terminator" }
      ]
    },
    "statement-block": {
      "name": "meta.block.maniascript",
      "begin": "\\{",
      "beginCaptures": {
        "0": {
          "name": "punctuation.curlybrace.open.maniascript"
        }
      },
      "end": "\\}",
      "endCaptures": {
        "0": {
          "name": "punctuation.curlybrace.close.maniascript"
        }
      },
      "patterns": [
        { "include": "#statements" }
      ]
    },
    "statement-return": {
      "name": "meta.statement.return.maniascript",
      "begin": "return",
      "beginCaptures": {
        "0": {
          "name": "keyword.control.flow.return.maniascript"
        }
      },
      "end": "(?=;)",
      "patterns": [
        { "include": "#expressions" }
      ]
    },
    "statement-label": {
      "patterns": [
        {
          "name": "meta.statement.label.maniascript",
          "begin": "\\+\\+\\+",
          "beginCaptures": {
            "0": {
              "name": "punctuation.label.open.maniascript"
            }
          },
          "end": "\\+\\+\\+",
          "endCaptures": {
            "0": {
              "name": "punctuation.label.close.maniascript"
            }
          },
          "patterns": [
            {
              "name": "entity.name.tag.maniascript",
              "match": "[_[:alpha:]][_[:alnum:]]*"
            },
            { "include": "#comments" }
          ]
        },
        {
          "name": "meta.statement.label.maniascript",
          "begin": "---",
          "beginCaptures": {
            "0": {
              "name": "punctuation.label.open.maniascript"
            }
          },
          "end": "---",
          "endCaptures": {
            "0": {
              "name": "punctuation.label.close.maniascript"
            }
          },
          "patterns": [
            {
              "name": "entity.name.tag.maniascript",
              "match": "[_[:alpha:]][_[:alnum:]]*"
            },
            { "include": "#comments" }
          ]
        }
      ]
    },
    "statement-assert": {
      "name": "meta.statement.assert.maniascript",
      "begin": "\\b(assert)\\b",
      "beginCaptures": {
        "1": {
          "name": "support.function.assert.maniascript"
        }
      },
      "end": "(?=;)",
      "patterns": [
        {
          "name": "meta.function.parameters.maniascript",
          "begin": "\\(",
          "beginCaptures": {
            "0": {
              "name": "punctuation.parenthesis.open.maniascript"
            }
          },
          "end": "\\)",
          "endCaptures": {
            "0": {
              "name": "punctuation.parenthesis.close.maniascript"
            }
          },
          "patterns": [
            { "include": "#expressions" },
            {
              "name": "punctuation.separator.comma.maniascript",
              "match": ","
            }
          ]
        },
        { "include": "#comments" }
      ]
    },
    "statement-loop": {
      "name": "meta.statement.loop.maniascript",
      "begin": "\\b(?:(foreach)|(for)|(while)|(meanwhile))\\b",
      "beginCaptures": {
        "1": {
          "name": "keyword.control.loop.foreach.maniascript"
        },
        "2": {
          "name": "keyword.control.loop.for.maniascript"
        },
        "3": {
          "name": "keyword.control.loop.while.maniascript"
        },
        "4": {
          "name": "keyword.control.loop.meanwhile.maniascript"
        }
      },
      "end": "(?<=\\))|(?=;|})",
      "patterns": [
        {
          "begin": "\\(",
          "beginCaptures": {
            "0": {
              "name": "punctuation.parenthesis.open.maniascript"
            }
          },
          "end": "\\)",
          "endCaptures": {
            "0": {
              "name": "punctuation.parenthesis.close.maniascript"
            }
          },
          "patterns": [
            {
              "name": "punctuation.separator.comma.maniascript",
              "match": ","
            },
            {
              "name": "keyword.operator.arrow.maniascript",
              "match": "=>"
            },
            {
              "name": "keyword.control.loop.in.maniascript",
              "match": "in"
            },
            {
              "name": "keyword.control.loop.reverse.maniascript",
              "match": "reverse"
            },
            { "include": "#expressions" }
          ]
        },
        { "include": "#comments" }
      ]
    },
    "statement-break-continue": {
      "begin": "\\b(?:(break)|(continue))\\b",
      "beginCaptures": {
        "1": {
          "name": "keyword.control.flow.break.maniascript"
        },
        "2": {
          "name": "keyword.control.flow.continue.maniascript"
        }
      },
      "end": "(?=;)",
      "patterns": [
        { "include": "#comments" }
      ]
    },
    "statement-switch": {
      "name": "meta.statement.switch.maniascript",
      "begin": "\\b(switch)\\b",
      "beginCaptures": {
        "1": {
          "name": "keyword.control.conditional.switch.maniascript"
        }
      },
      "end": "(?<=})|(?=})",
      "patterns": [
        { "include": "#statement-switch-condition" },
        { "include": "#statement-switch-block" },
        { "include": "#comments" }
      ]
    },
    "statement-switch-condition": {
      "begin": "\\(",
      "beginCaptures": {
        "0": {
          "name": "punctuation.parenthesis.open.maniascript"
        }
      },
      "end": "\\)",
      "endCaptures": {
        "0": {
          "name": "punctuation.parenthesis.close.maniascript"
        }
      },
      "patterns": [
        { "include": "#expressions" }
      ]
    },
    "statement-switch-block": {
      "begin": "\\{",
      "beginCaptures": {
        "0": {
          "name": "punctuation.curlybrace.open.maniascript"
        }
      },
      "end": "\\}",
      "endCaptures": {
        "0": {
          "name": "punctuation.curlybrace.close.maniascript"
        }
      },
      "patterns": [
        { "include": "#statement-switch-label" },
        { "include": "#statements" }
      ]
    },
    "statement-switch-label": {
      "begin": "\\b(?:(case)|(default))\\b",
      "beginCaptures": {
        "1": {
          "name": "keyword.control.conditional.case.maniascript"
        },
        "2": {
          "name": "keyword.control.conditional.default.maniascript"
        }
      },
      "end": "(:)|(?=})",
      "endCaptures": {
        "1": {
          "name": "punctuation.separator.colon.maniascript"
        }
      },
      "patterns": [
        { "include": "#expressions" }
      ]
    },
    "statement-switchtype": {
      "name": "meta.statement.switchtype.maniascript",
      "begin": "\\b(switchtype)\\b",
      "beginCaptures": {
        "1": {
          "name": "keyword.control.conditional.switchtype.maniascript"
        }
      },
      "end": "(?<=})|(?=})",
      "patterns": [
        { "include": "#statement-switchtype-condition" },
        { "include": "#statement-switchtype-block" },
        { "include": "#comments" }
      ]
    },
    "statement-switchtype-condition": {
      "begin": "\\(",
      "beginCaptures": {
        "0": {
          "name": "punctuation.parenthesis.open.maniascript"
        }
      },
      "end": "\\)",
      "endCaptures": {
        "0": {
          "name": "punctuation.parenthesis.close.maniascript"
        }
      },
      "patterns": [
        {
          "begin": "\\b(as)\\b",
          "beginCaptures": {
            "1": {
              "name": "keyword.operator.expression.as.maniascript"
            }
          },
          "end": "([_[:alpha:]][_[:alnum:]]*)|(?=\\)|}|;)",
          "endCaptures": {
            "1": {
              "name": "variable.other.constant.maniascript"
            }
          },
          "patterns": [
            { "include": "#comments" }
          ]
        },
        { "include": "#expressions" }
      ]
    },
    "statement-switchtype-block": {
      "begin": "\\{",
      "beginCaptures": {
        "0": {
          "name": "punctuation.curlybrace.open.maniascript"
        }
      },
      "end": "\\}",
      "endCaptures": {
        "0": {
          "name": "punctuation.curlybrace.close.maniascript"
        }
      },
      "patterns": [
        { "include": "#statement-switchtype-label" },
        { "include": "#statements" }
      ]
    },
    "statement-switchtype-label": {
      "begin": "\\b(?:(case)|(default))\\b",
      "beginCaptures": {
        "1": {
          "name": "keyword.control.conditional.case.maniascript"
        },
        "2": {
          "name": "keyword.control.conditional.default.maniascript"
        }
      },
      "end": "(:)|(?=})",
      "endCaptures": {
        "1": {
          "name": "punctuation.separator.colon.maniascript"
        }
      },
      "patterns": [
        {
          "match": "[_[:alpha:]][_[:alnum:]]*",
          "captures": {
            "0": {
              "name": "entity.name.type.class.maniascript"
            }
          }
        },
        { "include": "#comments" }
      ]
    },
    "statement-if": {
      "name": "meta.statement.if.maniascript",
      "begin": "\\b(if)\\b",
      "beginCaptures": {
        "1": {
          "name": "keyword.control.conditional.if.maniascript"
        }
      },
      "end": "(?<=})|(?=;)",
      "patterns": [
        { "include": "#statement-if-condition" },
        { "include": "#statements" }
      ]
    },
    "statement-if-condition": {
      "begin": "\\(",
      "beginCaptures": {
        "0": {
          "name": "punctuation.parenthesis.open.maniascript"
        }
      },
      "end": "\\)",
      "endCaptures": {
        "0": {
          "name": "punctuation.parenthesis.close.maniascript"
        }
      },
      "patterns": [
        { "include": "#expressions" }
      ]
    },
    "statement-else": {
      "name": "meta.statement.else.maniascript",
      "begin": "\\b(else)\\b",
      "beginCaptures": {
        "1": {
          "name": "keyword.control.conditional.else.maniascript"
        }
      },
      "end": "(?<=})|(?=;)",
      "patterns": [
        { "include": "#statements" }
      ]
    },
    "statement-log": {
      "name": "meta.statement.log.maniascript",
      "begin": "\\b(log)\\b",
      "beginCaptures": {
        "1": {
          "name": "keyword.other.log.maniascript"
        }
      },
      "end": "(?=;)",
      "patterns": [
        { "include": "#statement-log-parameters" },
        { "include": "#comments" }
      ]
    },
    "statement-log-parameters": {
      "begin": "\\(",
      "beginCaptures": {
        "0": {
          "name": "punctuation.parenthesis.open.maniascript"
        }
      },
      "end": "\\)",
      "endCaptures": {
        "0": {
          "name": "punctuation.parenthesis.close.maniascript"
        }
      },
      "patterns": [
        { "include": "#expressions" }
      ]
    },
    "statement-sleep": {
      "name": "meta.statement.sleep.maniascript",
      "begin": "\\b(sleep)\\b",
      "beginCaptures": {
        "1": {
          "name": "keyword.other.sleep.maniascript"
        }
      },
      "end": "(?=;)",
      "patterns": [
        { "include": "#statement-sleep-parameters" },
        { "include": "#comments" }
      ]
    },
    "statement-sleep-parameters": {
      "begin": "\\(",
      "beginCaptures": {
        "0": {
          "name": "punctuation.parenthesis.open.maniascript"
        }
      },
      "end": "\\)",
      "endCaptures": {
        "0": {
          "name": "punctuation.parenthesis.close.maniascript"
        }
      },
      "patterns": [
        { "include": "#expressions" }
      ]
    },
    "statement-wait": {
      "name": "meta.statement.wait.maniascript",
      "begin": "\\b(wait)\\b",
      "beginCaptures": {
        "1": {
          "name": "keyword.other.wait.maniascript"
        }
      },
      "end": "(?=;)",
      "patterns": [
        { "include": "#statement-wait-parameters" },
        { "include": "#comments" }
      ]
    },
    "statement-wait-parameters": {
      "begin": "\\(",
      "beginCaptures": {
        "0": {
          "name": "punctuation.parenthesis.open.maniascript"
        }
      },
      "end": "\\)",
      "endCaptures": {
        "0": {
          "name": "punctuation.parenthesis.close.maniascript"
        }
      },
      "patterns": [
        { "include": "#expressions" }
      ]
    },
    "statement-tuningstart": {
      "name": "meta.statement.tuningstart.maniascript",
      "begin": "\\b(tuningstart)\\b",
      "beginCaptures": {
        "1": {
          "name": "keyword.other.tuningstart.maniascript"
        }
      },
      "end": "(?=;)",
      "patterns": [
        { "include": "#statement-tuningstart-parameters" },
        { "include": "#comments" }
      ]
    },
    "statement-tuningstart-parameters": {
      "begin": "\\(",
      "beginCaptures": {
        "0": {
          "name": "punctuation.parenthesis.open.maniascript"
        }
      },
      "end": "\\)",
      "endCaptures": {
        "0": {
          "name": "punctuation.parenthesis.close.maniascript"
        }
      },
      "patterns": [
        { "include": "#comments" },
        {
          "name": "invalid.illegal.parameter.maniascript",
          "match": "[^\\)]*"
        }
      ]
    },
    "statement-tuningend": {
      "name": "meta.statement.tuningend.maniascript",
      "begin": "\\b(tuningend)\\b",
      "beginCaptures": {
        "1": {
          "name": "keyword.other.tuningend.maniascript"
        }
      },
      "end": "(?=;)",
      "patterns": [
        { "include": "#statement-tuningend-parameters" },
        { "include": "#comments" }
      ]
    },
    "statement-tuningend-parameters": {
      "begin": "\\(",
      "beginCaptures": {
        "0": {
          "name": "punctuation.parenthesis.open.maniascript"
        }
      },
      "end": "\\)",
      "endCaptures": {
        "0": {
          "name": "punctuation.parenthesis.close.maniascript"
        }
      },
      "patterns": [
        { "include": "#comments" },
        {
          "name": "invalid.illegal.parameter.maniascript",
          "match": "[^\\)]*"
        }
      ]
    },
    "statement-tuningmark": {
      "name": "meta.statement.tuningmark.maniascript",
      "begin": "\\b(tuningmark)\\b",
      "beginCaptures": {
        "1": {
          "name": "keyword.other.tuningmark.maniascript"
        }
      },
      "end": "(?=;)",
      "patterns": [
        { "include": "#statement-tuningmark-parameters" },
        { "include": "#comments" }
      ]
    },
    "statement-tuningmark-parameters": {
      "begin": "\\(",
      "beginCaptures": {
        "0": {
          "name": "punctuation.parenthesis.open.maniascript"
        }
      },
      "end": "\\)",
      "endCaptures": {
        "0": {
          "name": "punctuation.parenthesis.close.maniascript"
        }
      },
      "patterns": [
        { "include": "#expressions" }
      ]
    },
    "statement-yield": {
      "name": "meta.statement.yield.maniascript",
      "begin": "\\b(yield)\\b",
      "beginCaptures": {
        "1": {
          "name": "keyword.other.yield.maniascript"
        }
      },
      "end": "(?=;)",
      "patterns": [
        { "include": "#statement-yield-parameters" },
        { "include": "#comments" }
      ]
    },
    "statement-yield-parameters": {
      "begin": "\\(",
      "beginCaptures": {
        "0": {
          "name": "punctuation.parenthesis.open.maniascript"
        }
      },
      "end": "\\)",
      "endCaptures": {
        "0": {
          "name": "punctuation.parenthesis.close.maniascript"
        }
      },
      "patterns": [
        { "include": "#expressions" }
      ]
    },
    "literals": {
      "patterns": [
        { "include": "#literal-real" },
        { "include": "#literal-integer" },
        { "include": "#literal-boolean" },
        { "include": "#literal-null" },
        { "include": "#literal-nullid" },
        { "include": "#literal-vector" },
        { "include": "#literal-type" },
        { "include": "#literal-enum" },
        { "include": "#literal-string" }
      ]
    },
    "literal-real": {
      "patterns": [
        {
          "name": "constant.numeric.decimal.maniascript",
          "match": "(?<!\\w)-?\\.[0-9]+(?:[eE][+-]?[0-9]+)?"
        }, {
          "name": "constant.numeric.decimal.maniascript",
          "match": "-?[0-9]+\\.[0-9]*(?:[eE][+-]?[0-9]+)?"
        }
      ]
    },
    "literal-integer": {
      "name": "constant.numeric.integer.maniascript",
      "match": "-?[0-9]+(?:[eE][+-]?[0-9]+)?"
    },
    "literal-boolean": {
      "patterns": [
        {
          "name": "constant.language.boolean.true.maniascript",
          "match": "\\b(True)\\b"
        }, {
          "name": "constant.language.boolean.false.maniascript",
          "match": "\\b(False)\\b"
        }
      ]
    },
    "literal-null": {
      "name": "constant.language.null.maniascript",
      "match": "\\b(Null)\\b"
    },
    "literal-nullid": {
      "name": "constant.language.nullid.maniascript",
      "match": "\\b(NullId)\\b"
    },
    "literal-vector": {
      "patterns": [
        { "include": "#literal-vec2" },
        { "include": "#literal-vec3" },
        { "include": "#literal-int2" },
        { "include": "#literal-int3" }
      ]
    },
    "literal-vec2": {
      "name": "constant.language.vec2.maniascript",
      "match": "(<)\\s*(?:((?<!\\w)-?\\.[0-9]+(?:[eE][+-]?[0-9]+)?)|(-?[0-9]+\\.[0-9]*(?:[eE][+-]?[0-9]+)?))\\s*(,)\\s*(?:((?<!\\w)-?\\.[0-9]+(?:[eE][+-]?[0-9]+)?)|(-?[0-9]+\\.[0-9]*(?:[eE][+-]?[0-9]+)?)|(-?[0-9]+(?:[eE][+-]?[0-9]+)?))\\s*(>)",
      "captures": {
        "1":  {
          "name": "punctuation.definition.vector.begin.maniascript"
        },
        "2": {
          "name": "constant.numeric.decimal.maniascript"
        },
        "3": {
          "name": "constant.numeric.decimal.maniascript"
        },
        "4": {
          "name": "punctuation.separator.comma.maniascript"
        },
        "5": {
          "name": "constant.numeric.decimal.maniascript"
        },
        "6": {
          "name": "constant.numeric.decimal.maniascript"
        },
        "7": {
          "name": "invalid.illegal.integer.maniascript"
        },
        "8": {
          "name": "punctuation.definition.vector.end.maniascript"
        }
      }
    },
    "literal-vec3": {
      "name": "constant.language.vec3.maniascript",
      "match": "(<)\\s*(?:((?<!\\w)-?\\.[0-9]+(?:[eE][+-]?[0-9]+)?)|(-?[0-9]+\\.[0-9]*(?:[eE][+-]?[0-9]+)?))\\s*(,)\\s*(?:((?<!\\w)-?\\.[0-9]+(?:[eE][+-]?[0-9]+)?)|(-?[0-9]+\\.[0-9]*(?:[eE][+-]?[0-9]+)?)|(-?[0-9]+(?:[eE][+-]?[0-9]+)?))\\s*(,)\\s*(?:((?<!\\w)-?\\.[0-9]+(?:[eE][+-]?[0-9]+)?)|(-?[0-9]+\\.[0-9]*(?:[eE][+-]?[0-9]+)?)|(-?[0-9]+(?:[eE][+-]?[0-9]+)?))\\s*(>)",
      "captures": {
        "1":  {
          "name": "punctuation.definition.vector.begin.maniascript"
        },
        "2": {
          "name": "constant.numeric.decimal.maniascript"
        },
        "3": {
          "name": "constant.numeric.decimal.maniascript"
        },
        "4": {
          "name": "punctuation.separator.comma.maniascript"
        },
        "5": {
          "name": "constant.numeric.decimal.maniascript"
        },
        "6": {
          "name": "constant.numeric.decimal.maniascript"
        },
        "7": {
          "name": "invalid.illegal.integer.maniascript"
        },
        "8": {
          "name": "punctuation.separator.comma.maniascript"
        },
        "9": {
          "name": "constant.numeric.decimal.maniascript"
        },
        "10": {
          "name": "constant.numeric.decimal.maniascript"
        },
        "11": {
          "name": "invalid.illegal.integer.maniascript"
        },
        "12": {
          "name": "punctuation.definition.vector.end.maniascript"
        }
      }
    },
    "literal-int2": {
      "name": "constant.language.int2.maniascript",
      "match": "(<)\\s*(-?[0-9]+(?:[eE][+-]?[0-9]+)?)\\s*(,)\\s*(?:(-?[0-9]+(?:[eE][+-]?[0-9]+)?)|((?<!\\w)-?\\.[0-9]+(?:[eE][+-]?[0-9]+)?)|(-?[0-9]+\\.[0-9]*(?:[eE][+-]?[0-9]+)?))\\s*(>)",
      "captures": {
        "1":  {
          "name": "punctuation.definition.vector.begin.maniascript"
        },
        "2": {
          "name": "constant.numeric.integer.maniascript"
        },
        "3": {
          "name": "punctuation.separator.comma.maniascript"
        },
        "4": {
          "name": "constant.numeric.integer.maniascript"
        },
        "5": {
          "name": "invalid.illegal.decimal.maniascript"
        },
        "6": {
          "name": "invalid.illegal.decimal.maniascript"
        },
        "7": {
          "name": "punctuation.definition.vector.end.maniascript"
        }
      }
    },
    "literal-int3": {
      "name": "constant.language.int3.maniascript",
      "match": "(<)\\s*(-?[0-9]+(?:[eE][+-]?[0-9]+)?)\\s*(,)\\s*(?:(-?[0-9]+(?:[eE][+-]?[0-9]+)?)|((?<!\\w)-?\\.[0-9]+(?:[eE][+-]?[0-9]+)?)|(-?[0-9]+\\.[0-9]*(?:[eE][+-]?[0-9]+)?))\\s*(,)\\s*(?:(-?[0-9]+(?:[eE][+-]?[0-9]+)?)|((?<!\\w)-?\\.[0-9]+(?:[eE][+-]?[0-9]+)?)|(-?[0-9]+\\.[0-9]*(?:[eE][+-]?[0-9]+)?))\\s*(>)",
      "captures": {
        "1":  {
          "name": "punctuation.definition.vector.begin.maniascript"
        },
        "2": {
          "name": "constant.numeric.integer.maniascript"
        },
        "3": {
          "name": "punctuation.separator.comma.maniascript"
        },
        "4": {
          "name": "constant.numeric.integer.maniascript"
        },
        "5": {
          "name": "invalid.illegal.decimal.maniascript"
        },
        "6": {
          "name": "invalid.illegal.decimal.maniascript"
        },
        "7": {
          "name": "punctuation.separator.comma.maniascript"
        },
        "8": {
          "name": "constant.numeric.integer.maniascript"
        },
        "9": {
          "name": "invalid.illegal.decimal.maniascript"
        },
        "10": {
          "name": "invalid.illegal.decimal.maniascript"
        },
        "11": {
          "name": "punctuation.definition.vector.end.maniascript"
        }
      }
    },
    "literal-type": {
      "name": "storage.type.primitive.maniascript",
      "match": "\\b(Boolean|Ident|Int2|Int3|Integer|Real|Text|Vec2|Vec3|Void)\\b"
    },
    "literal-enum": {
      "name": "meta.literal.enum.maniascript",
      "match": "([_[:alpha:]][_[:alnum:]]*)\\s*(::)\\s*([_[:alpha:]][_[:alnum:]]*)\\s*(::)\\s*([_[:alpha:]][_[:alnum:]]*)",
      "captures": {
        "1": {
          "name": "entity.name.type.class.maniascript"
        },
        "2": {
          "name": "punctuation.separator.coloncolon.maniascript"
        },
        "3": {
          "name": "entity.name.type.enum-name.maniascript"
        },
        "4": {
          "name": "punctuation.separator.coloncolon.maniascript"
        },
        "5": {
          "name": "entity.name.type.enum-value.maniascript"
        }
      }
    },
    "literal-string": {
      "patterns": [
        { "include": "#literal-string-translate" },
        { "include": "#literal-string-triple" },
        { "include": "#literal-string-single" }
      ]
    },
    "literal-string-translate": {
      "name": "string.translate.maniascript",
      "begin": "_\\(",
      "beginCaptures": {
        "0": {
          "name": "punctuation.definition.translate.begin.maniascript"
        }
      },
      "end": "\\)",
      "endCaptures": {
        "0": {
          "name": "punctuation.definition.translate.end.maniascript"
        }
      },
      "patterns": [
        { "include": "#literal-string-triple" },
        { "include": "#literal-string-single" },
        { "include": "#comments" }
      ]
    },
    "literal-string-triple": {
      "name": "string.quoted.triple.maniascript",
      "begin": "\"\"\"",
      "beginCaptures": {
        "0": {
          "name": "punctuation.definition.string.begin.maniascript"
        }
      },
      "end": "\"\"\"",
      "endCaptures": {
        "0": {
          "name": "punctuation.definition.string.end.maniascript"
        }
      },
      "patterns": [
        { "include": "#literal-string-triple-expression" },
        { "include": "#literal-string-triple-script" },
        { "include": "#literal-string-triple-xml" }
      ]
    },
    "literal-string-triple-expression": {
      "name": "meta.string.triple.expression.maniascript",
      "contentName": "meta.embedded.line.maniascript",
      "begin": "\\{\\{\\{",
      "beginCaptures": {
        "0": {
          "name": "punctuation.definition.template-expression.begin.maniascript"
        }
      },
      "end": "\\}\\}\\}",
      "endCaptures": {
        "0": {
          "name": "punctuation.definition.template-expression.end.maniascript"
        }
      },
      "patterns": [
        { "include": "#expressions" }
      ]
    },
    "literal-string-triple-script": {
      "contentName": "meta.embedded.block.maniascript",
      "begin": "(?<=<script>)",
      "end": "(?=<\\/script>|\"\"\")",
      "patterns": [
        {
          "name": "comment.block.maniascript punctuation.definition.comment.maniascript",
          "match": "<\\!--|-->"
        },
        { "include": "$self" }
      ]
    },
    "literal-string-triple-xml": {
      "patterns": [
        { "include": "text.xml" }
      ]
    },
    "literal-string-single": {
      "name": "string.quoted.double.maniascript",
      "begin": "\"",
      "beginCaptures": {
        "0": {
          "name": "punctuation.definition.string.begin.maniascript"
        }
      },
      "end": "(\")|((?:[^\\\\\\n])$)",
      "endCaptures": {
        "1": {
          "name": "punctuation.definition.string.end.maniascript"
        },
        "2": {
          "name": "invalid.illegal.newline.maniascript"
        }
      },
      "patterns": [
        { "include": "#literal-string-single-character-escape"}
      ]
    },
    "literal-string-single-character-escape": {
      "name": "constant.character.escape.maniascript",
      "match": "\\\\[\"\\\\nrt]"
    },
    "expressions": {
      "patterns": [
        { "include": "#comments" },
        { "include": "#expression-struct" },
        { "include": "#literals" },
        { "include": "#expression-operators" },
        { "include": "#expression-dumptype" },
        { "include": "#expression-dump" },
        { "include": "#expression-cast" },
        { "include": "#function-call" },
        { "include": "#expression-as" },
        { "include": "#expression-dot-access" },
        { "include": "#expression-array" },
        { "include": "#expression-is" },
        { "include": "#expression-this" },
        { "include": "#expression-parenthesis" },
        { "include": "#keywords" },
        { "include": "#expression-identifier" }
      ]
    },
    "expression-struct": {
      "name": "meta.struct.maniascript",
      "begin": "(?:([_[:alpha:]][_[:alnum:]]*)\\s*(::)\\s*)?([_[:alpha:]][_[:alnum:]]*)\\s*(\\{)",
      "beginCaptures": {
        "1": {
          "name": "variable.other.namespace.maniascript"
        },
        "2": {
          "name": "punctuation.separator.coloncolon.maniascript"
        },
        "3": {
          "name": "entity.name.type.struct.maniascript"
        },
        "4": {
          "name": "punctuation.definition.struct.begin.maniascript"
        }
      },
      "end": "\\}",
      "endCaptures": {
        "0": {
          "name": "punctuation.definition.struct.end.maniascript"
        }
      },
      "patterns": [
        { "include": "#comments" },
        { "include": "#expression-struct-member" },
        {
          "name": "punctuation.separator.comma.maniascript",
          "match": ","
        }
      ]
    },
    "expression-struct-member": {
      "begin": "([_[:alpha:]][_[:alnum:]]*)\\s*(\\=)",
      "beginCaptures": {
        "1": {
          "name": "variable.other.struct.member.maniascript"
        },
        "2": {
          "name": "keyword.operator.assignment.maniascript"
        }
      },
      "end": "(?=,|\\})",
      "patterns": [
        { "include": "#expressions" }
      ]
    },
    "type": {
      "patterns": [
        { "include": "#type-base" },
        { "include": "#type-array" }
      ]
    },
    "expression-operators": {
      "patterns": [
        {
          "name": "keyword.operator.assignment.compound.maniascript",
          "match": "\\*=|/=|%=|\\+=|-=|\\^="
        },
        {
          "name": "keyword.operator.assignment.maniascript",
          "match": "<=>|=(?!=|>)"
        },
        {
          "name": "keyword.operator.comparison.maniascript",
          "match": "==|!="
        },
        {
          "name": "keyword.operator.relational.maniascript",
          "match": "<=|>=|<|>"
        },
        {
          "name": "keyword.operator.logical.maniascript",
          "match": "\\!|&&|\\|\\|"
        },
        {
          "name": "keyword.operator.arithmetic.maniascript",
          "match": "\\+|-|\\*|(?<!/)/(?!/)|%"
        },
        {
          "name": "keyword.operator.concatenation.maniascript",
          "match": "\\^"
        }
      ]
    },
    "expression-dumptype": {
      "name": "meta.function-call.maniascript",
      "begin": "\\b(dumptype)\\b",
      "beginCaptures": {
        "1": {
          "name": "support.function.maniascript"
        }
      },
      "end": "(?<=\\))|(?=;)",
      "patterns": [
        { "include": "#expression-dumptype-parameters" },
        { "include": "#comments" }
      ]
    },
    "expression-dumptype-parameters": {
      "begin": "\\(",
      "beginCaptures": {
        "0": {
          "name": "punctuation.parenthesis.open.maniascript"
        }
      },
      "end": "\\)",
      "endCaptures": {
        "0": {
          "name": "punctuation.parenthesis.close.maniascript"
        }
      },
      "patterns": [
        { "include": "#type-base" },
        { "include": "#comments" }
      ]
    },
    "expression-dump": {
      "name": "meta.function-call.maniascript",
      "begin": "\\b(dump)\\b",
      "beginCaptures": {
        "1": {
          "name": "support.function.maniascript"
        }
      },
      "end": "(?<=\\))|(?=;)",
      "patterns": [
        { "include": "#expression-dump-parameters" },
        { "include": "#comments" }
      ]
    },
    "expression-dump-parameters": {
      "begin": "\\(",
      "beginCaptures": {
        "0": {
          "name": "punctuation.parenthesis.open.maniascript"
        }
      },
      "end": "\\)",
      "endCaptures": {
        "0": {
          "name": "punctuation.parenthesis.close.maniascript"
        }
      },
      "patterns": [
        { "include": "#expressions" }
      ]
    },
    "expression-cast": {
      "name": "meta.function-call.maniascript",
      "begin": "\\b(cast)\\b",
      "beginCaptures": {
        "1": {
          "name": "support.function.maniascript"
        }
      },
      "end": "(?<=\\))|(?=;)",
      "patterns": [
        { "include": "#expression-cast-parameters" },
        { "include": "#comments" }
      ]
    },
    "expression-cast-parameters": {
      "begin": "\\(",
      "beginCaptures": {
        "0": {
          "name": "punctuation.parenthesis.open.maniascript"
        }
      },
      "end": "\\)",
      "endCaptures": {
        "0": {
          "name": "punctuation.parenthesis.close.maniascript"
        }
      },
      "patterns": [
        { "include": "#expressions" },
        {
          "name": "punctuation.separator.comma.maniascript",
          "match": ","
        }
      ]
    },
    "function-call": {
      "name": "meta.function-call.maniascript",
      "begin": "(?:([_[:alpha:]][_[:alnum:]]*)\\s*(::)\\s*)?([_[:alpha:]][_[:alnum:]]*)\\s*(\\()",
      "beginCaptures": {
        "1": {
          "name": "variable.other.namespace.maniascript"
        },
        "2": {
          "name": "punctuation.separator.coloncolon.maniascript"
        },
        "3": {
          "name": "entity.name.function.maniascript"
        },
        "4": {
          "name": "punctuation.parenthesis.open.maniascript"
        }
      },
      "end": "\\)",
      "endCaptures": {
        "0": {
          "name": "punctuation.parenthesis.close.maniascript"
        }
      },
      "patterns": [
        { "include": "#expressions" },
        {
          "name": "punctuation.separator.comma.maniascript",
          "match": ","
        }
      ],
      "contentName": "meta.function.parameters.maniascript"
    },
    "expression-as": {
      "begin": "\\b(as)\\b",
      "beginCaptures": {
        "1": {
          "name": "keyword.operator.expression.as.maniascript"
        }
      },
      "end": "(?:(?!_\\()([_[:alpha:]][_[:alnum:]]*))|(?=;)",
      "endCaptures": {
        "1": {
          "name": "entity.name.type.class.maniascript"
        }
      },
      "patterns": [
        { "include": "#comments" }
      ]
    },
    "expression-dot-access": {
      "match": "\\.",
      "name": "punctuation.accessor.maniascript"
    },
    "expression-array": {
      "name": "meta.array.expression.maniascript",
      "begin": "\\[",
      "beginCaptures": {
        "0": {
          "name": "punctuation.squarebracket.open.maniascript"
        }
      },
      "end": "\\]",
      "endCaptures": {
        "0": {
          "name": "punctuation.squarebracket.close.maniascript"
        }
      },
      "patterns": [
        { "include": "#expressions" },
        {
          "name": "punctuation.separator.comma.maniascript",
          "match": ","
        },
        {
          "name": "keyword.operator.arrow.maniascript",
          "match": "=>"
        }
      ]
    },
    "expression-is": {
      "begin": "\\b(is)\\b",
      "beginCaptures": {
        "1": {
          "name": "keyword.operator.expression.is.maniascript"
        }
      },
      "end": "([_[:alpha:]][_[:alnum:]]*)|(?=;)",
      "endCaptures": {
        "1": {
          "name": "entity.name.type.class.maniascript"
        }
      },
      "patterns": [
        { "include": "#comments" }
      ]
    },
    "expression-this": {
      "name": "variable.language.this.maniascript",
      "match": "\\bThis\\b"
    },
    "expression-parenthesis": {
      "begin": "\\(",
      "beginCaptures": {
        "0": {
          "name": "punctuation.parenthesis.open.maniascript"
        }
      },
      "end": "\\)",
      "endCaptures": {
        "0": {
          "name": "punctuation.parenthesis.close.maniascript"
        }
      },
      "patterns": [
        { "include": "#expressions" }
      ]
    },
    "expression-identifier": {
      "name": "meta.variable.name.maniascript",
      "patterns": [
        {
          "match": "([_[:alpha:]][_[:alnum:]]*)(::)([_[:alpha:]][_[:alnum:]]*)",
          "captures": {
            "1": {
              "name": "variable.other.namespace.maniascript"
            },
            "2": {
              "name": "punctuation.separator.coloncolon.maniascript"
            },
            "3": {
              "name": "variable.other.constant.maniascript"
            }
          }
        },
        {
          "match": "[_[:alpha:]][_[:alnum:]]*",
          "captures": {
            "0": {
              "name": "variable.other.readwrite.maniascript"
            }
          }
        }
      ]
    },
    "type-base": {
      "name": "meta.type.name.maniascript",
      "match": "(?:([_[:alpha:]][_[:alnum:]]*)(::))?([_[:alpha:]][_[:alnum:]]*)",
      "captures": {
        "1": {
          "name": "variable.other.namespace.maniascript"
        },
        "2": {
          "name": "punctuation.separator.coloncolon.maniascript"
        },
        "3": {
          "name": "storage.type.maniascript"
        }
      }
    },
    "type-array": {
      "begin": "\\[",
      "beginCaptures": {
        "0": {
          "name": "meta.type.name.maniascript punctuation.squarebracket.open.maniascript"
        }
      },
      "end": "\\]",
      "endCaptures": {
        "0": {
          "name": "meta.type.name.maniascript punctuation.squarebracket.close.maniascript"
        }
      },
      "patterns": [
        { "include": "#type-base" },
        { "include": "#comments" }
      ]
    },
    "punctuation-terminator": {
      "name": "punctuation.terminator.statement.maniascript",
      "match": ";"
    },
    "keywords": {
      "patterns": [
        { "include": "#keyword-storage-modifier" },
        { "include": "#keyword-unmatch" }
      ]
    },
    "keyword-storage-modifier": {
      "match": "\\b(cloud|metadata|netread|netwrite|persistent)\\b",
      "name": "storage.modifier.maniascript"
    },
    "keyword-unmatch": {
      "match": "\\b(assert|as|break|case|cast|continue|declare|let|default|dumptype|dump|else|foreach|for|if|in|is|log|main|meanwhile|return|reverse|sleep|switchtype|switch|tuningend|tuningmark|tuningstart|wait|while|yield|This)\\b",
      "name": "keyword.other.unmatch.maniascript"
    }
	}
}
